[
  {
    "definitions_word_en": "a starchy plant tuber which is one of the most important food crops, cooked and eaten as a vegetable.",
    "id_lesson": "potato_p",
    "definitions_ex_en": "roasted potatoes",
    "definitions_ex_vn": "khoai tây nướng",
    "definitions_type_word": "noun"
  },
  {
    "definitions_word_en": "the plant of the nightshade family that produces the potato tubers on underground runners.",
    "id_lesson": "potato_p",
    "definitions_ex_en": "",
    "definitions_ex_vn": "",
    "definitions_type_word": "noun"
  }
]