[
  {
    "definitions_word_en": "clearly stated or decided; not vague or doubtful.",
    "id_lesson": "definite_d",
    "definitions_ex_en": "we had no definite plans",
    "definitions_ex_vn": "Chúng tôi không có kế hoạch nhất định",
    "definitions_type_word": "adjective"
  }
]