[
  {
    "definitions_word_en": "a matter dealt with in a text, discourse, or conversation; a subject.",
    "id_lesson": "topic_t",
    "definitions_ex_en": "sleep deprivation became a frequent topic of conversation",
    "definitions_ex_vn": "thiếu ngủ trở thành một chủ đề thường xuyên của cuộc trò chuyện",
    "definitions_type_word": "noun"
  }
]