[
  {
    "definitions_word_en": "not needed.",
    "id_lesson": "unnecessary_u",
    "definitions_ex_en": "a fourth Chicago airport is unnecessary",
    "definitions_ex_vn": "Một sân bay Chicago thứ tư là không cần thiết",
    "definitions_type_word": "adjective"
  },
  {
    "definitions_word_en": "unnecessary things.",
    "id_lesson": "unnecessary_u",
    "definitions_ex_en": "Flora never wasted cash on unnecessaries",
    "definitions_ex_vn": "Flora không bao giờ lãng phí tiền mặt trên những người không cần thiết",
    "definitions_type_word": "noun"
  }
]