[
  {
    "definitions_word_en": "in, at, or to some other place or other places.",
    "id_lesson": "elsewhere_e",
    "definitions_ex_en": "he is seeking employment elsewhere",
    "definitions_ex_vn": "anh ấy đang tìm việc làm ở nơi khác",
    "definitions_type_word": "adverb"
  },
  {
    "definitions_word_en": "some other place.",
    "id_lesson": "elsewhere_e",
    "definitions_ex_en": "all Hawaiian plants originally came from elsewhere",
    "definitions_ex_vn": "Tất cả các loại cây Hawaii ban đầu đến từ những nơi khác",
    "definitions_type_word": "pronoun"
  }
]