[
  {
    "definitions_word_en": "put forward for consideration.",
    "id_lesson": "suggest_s",
    "definitions_ex_en": "I suggest that we wait a day or two",
    "definitions_ex_vn": "Tôi đề nghị chúng tôi đợi một hoặc hai ngày",
    "definitions_type_word": "verb"
  }
]