[
  {
    "definitions_word_en": "with opposite sides or surfaces that are a great or relatively great distance apart.",
    "id_lesson": "thick_t",
    "definitions_ex_en": "thick slices of bread",
    "definitions_ex_vn": "lát bánh mì dày",
    "definitions_type_word": "adjective"
  },
  {
    "definitions_word_en": "made up of a large number of things or people close together.",
    "id_lesson": "thick_t",
    "definitions_ex_en": "his hair was long and thick",
    "definitions_ex_vn": "Tóc anh dài và dày",
    "definitions_type_word": "adjective"
  },
  {
    "definitions_word_en": "(of a liquid or a semiliquid substance) relatively firm in consistency; not flowing freely.",
    "id_lesson": "thick_t",
    "definitions_ex_en": "thick mud",
    "definitions_ex_vn": "bùn dày",
    "definitions_type_word": "adjective"
  },
  {
    "definitions_word_en": "of low intelligence; stupid.",
    "id_lesson": "thick_t",
    "definitions_ex_en": "he\u0027s a bit thick",
    "definitions_ex_vn": "Anh ấy hơi dày",
    "definitions_type_word": "adjective"
  },
  {
    "definitions_word_en": "(of a voice) not clear or distinct; hoarse or husky.",
    "id_lesson": "thick_t",
    "definitions_ex_en": "Guy\u0027s voice was thick with desire",
    "definitions_ex_vn": "Giọng nói của Guy dày với mong muốn",
    "definitions_type_word": "adjective"
  },
  {
    "definitions_word_en": "having a very close, friendly relationship.",
    "id_lesson": "thick_t",
    "definitions_ex_en": "he\u0027s very thick with the new boss",
    "definitions_ex_vn": "Anh ấy rất dày với ông chủ mới",
    "definitions_type_word": "adjective"
  },
  {
    "definitions_word_en": "the busiest or most crowded part of something; the middle of something.",
    "id_lesson": "thick_t",
    "definitions_ex_en": "we were in the thick of the battle",
    "definitions_ex_vn": "Chúng tôi đã ở trong trận chiến dày đặc",
    "definitions_type_word": "noun"
  },
  {
    "definitions_word_en": "in or with deep, dense, or heavy mass.",
    "id_lesson": "thick_t",
    "definitions_ex_en": "bread spread thick with butter",
    "definitions_ex_vn": "Bánh mì trải dày bằng bơ",
    "definitions_type_word": "adverb"
  }
]