[
  {
    "definitions_word_en": "used by a speaker to refer to himself or herself and one or more other people considered together.",
    "id_lesson": "we_w",
    "definitions_ex_en": "shall we have a drink?",
    "definitions_ex_vn": "Chúng ta sẽ có một thức uống?",
    "definitions_type_word": "pronoun"
  },
  {
    "definitions_word_en": "used in formal contexts for or by a royal person, or by a writer or editor, to refer to himself or herself.",
    "id_lesson": "we_w",
    "definitions_ex_en": "in this section we discuss the reasons",
    "definitions_ex_vn": "Trong phần này, chúng tôi thảo luận về lý do",
    "definitions_type_word": "pronoun"
  },
  {
    "definitions_word_en": "used condescendingly to refer to the person being addressed.",
    "id_lesson": "we_w",
    "definitions_ex_en": "how are we today?",
    "definitions_ex_vn": "Hôm nay chúng ta thế nào?",
    "definitions_type_word": "pronoun"
  }
]