[
  {
    "definitions_word_en": "(of a sense) highly developed.",
    "id_lesson": "keen_k",
    "definitions_ex_en": "I have keen eyesight",
    "definitions_ex_vn": "Tôi có thị lực sâu sắc",
    "definitions_type_word": "adjective"
  },
  {
    "definitions_word_en": "(of the edge or point of a blade) sharp.",
    "id_lesson": "keen_k",
    "definitions_ex_en": "",
    "definitions_ex_vn": "",
    "definitions_type_word": "adjective"
  },
  {
    "definitions_word_en": "having or showing eagerness or enthusiasm.",
    "id_lesson": "keen_k",
    "definitions_ex_en": "keen believers in the monetary system",
    "definitions_ex_vn": "Những tín đồ quan sát trong hệ thống tiền tệ",
    "definitions_type_word": "adjective"
  },
  {
    "definitions_word_en": "wail in grief for a dead person; sing a keen.",
    "id_lesson": "keen_k",
    "definitions_ex_en": "",
    "definitions_ex_vn": "",
    "definitions_type_word": "verb"
  },
  {
    "definitions_word_en": "an Irish funeral song accompanied by wailing in lamentation for the dead.",
    "id_lesson": "keen_k",
    "definitions_ex_en": "",
    "definitions_ex_vn": "",
    "definitions_type_word": "noun"
  }
]