[
  {
    "definitions_word_en": "communicate information, facts, or news to someone in spoken or written words.",
    "id_lesson": "tell_t",
    "definitions_ex_en": "I told her you were coming",
    "definitions_ex_vn": "Tôi nói với cô ấy rằng bạn đang đến",
    "definitions_type_word": "verb"
  },
  {
    "definitions_word_en": "decide or determine correctly or with certainty.",
    "id_lesson": "tell_t",
    "definitions_ex_en": "you can tell they\u0027re in love",
    "definitions_ex_vn": "Bạn có thể nói rằng họ đang yêu",
    "definitions_type_word": "verb"
  },
  {
    "definitions_word_en": "count (the members of a series or group).",
    "id_lesson": "tell_t",
    "definitions_ex_en": "the shepherd had told all his sheep",
    "definitions_ex_vn": "Người chăn cừu đã nói với tất cả những con cừu của mình",
    "definitions_type_word": "verb"
  },
  {
    "definitions_word_en": "(especially in poker) an unconscious action that is thought to betray an attempted deception.",
    "id_lesson": "tell_t",
    "definitions_ex_en": "",
    "definitions_ex_vn": "",
    "definitions_type_word": "noun"
  },
  {
    "definitions_word_en": "(in the Middle East) an artificial mound formed by the accumulated remains of ancient settlements.",
    "id_lesson": "tell_t",
    "definitions_ex_en": "",
    "definitions_ex_vn": "",
    "definitions_type_word": "noun"
  }
]