[
  {
    "definitions_word_en": "in most cases; usually.",
    "id_lesson": "generally_g",
    "definitions_ex_en": "the term of a lease is generally 99 years",
    "definitions_ex_vn": "Thuật ngữ của hợp đồng thuê thường là 99 năm",
    "definitions_type_word": "adverb"
  },
  {
    "definitions_word_en": "in general terms; without regard to particulars or exceptions.",
    "id_lesson": "generally_g",
    "definitions_ex_en": "a decade when France was moving generally to the left",
    "definitions_ex_vn": "một thập kỷ khi Pháp thường di chuyển sang trái",
    "definitions_type_word": "adverb"
  },
  {
    "definitions_word_en": "widely.",
    "id_lesson": "generally_g",
    "definitions_ex_en": "the best scheme is generally reckoned to be the Canadian one",
    "definitions_ex_vn": "Đề án tốt nhất thường được tính toán là người Canada",
    "definitions_type_word": "adverb"
  }
]