[
  {
    "definitions_word_en": "a thing intended; an aim or plan.",
    "id_lesson": "intention_i",
    "definitions_ex_en": "she was full of good intentions",
    "definitions_ex_vn": "Cô ấy đầy ý định tốt",
    "definitions_type_word": "noun"
  },
  {
    "definitions_word_en": "the healing process of a wound.",
    "id_lesson": "intention_i",
    "definitions_ex_en": "",
    "definitions_ex_vn": "",
    "definitions_type_word": "noun"
  }
]