[
  {
    "definitions_word_en": "the action or process of throwing away or getting rid of something.",
    "id_lesson": "disposal_d",
    "definitions_ex_en": "the disposal of radioactive waste",
    "definitions_ex_vn": "Việc xử lý chất thải phóng xạ",
    "definitions_type_word": "noun"
  },
  {
    "definitions_word_en": "the sale of shares, property, or other assets.",
    "id_lesson": "disposal_d",
    "definitions_ex_en": "the disposal of his shares in the company",
    "definitions_ex_vn": "Việc xử lý cổ phiếu của mình trong công ty",
    "definitions_type_word": "noun"
  },
  {
    "definitions_word_en": "the arrangement or positioning of something.",
    "id_lesson": "disposal_d",
    "definitions_ex_en": "",
    "definitions_ex_vn": "",
    "definitions_type_word": "noun"
  }
]