[
  {
    "definitions_word_en": "go down below the surface of something, especially of a liquid; become submerged.",
    "id_lesson": "sink_s",
    "definitions_ex_en": "he saw the coffin sink below the surface of the waves",
    "definitions_ex_vn": "Anh nhìn thấy quan tài dưới bề mặt sóng",
    "definitions_type_word": "verb"
  },
  {
    "definitions_word_en": "descend; drop.",
    "id_lesson": "sink_s",
    "definitions_ex_en": "you can relax on the veranda as the sun sinks",
    "definitions_ex_vn": "Bạn có thể thư giãn trên veranda khi mặt trời chìm",
    "definitions_type_word": "verb"
  },
  {
    "definitions_word_en": "gradually decrease or decline in value, amount, quality, or intensity.",
    "id_lesson": "sink_s",
    "definitions_ex_en": "their output sank to a third of the prewar figure",
    "definitions_ex_vn": "đầu ra của họ chìm xuống một phần ba của con số trước đây",
    "definitions_type_word": "verb"
  },
  {
    "definitions_word_en": "insert beneath a surface by digging or hollowing out.",
    "id_lesson": "sink_s",
    "definitions_ex_en": "rails attached with screws sunk below the surface of the wood",
    "definitions_ex_vn": "Rails gắn với ốc vít chìm dưới bề mặt gỗ",
    "definitions_type_word": "verb"
  },
  {
    "definitions_word_en": "a fixed basin with a water supply and a drain.",
    "id_lesson": "sink_s",
    "definitions_ex_en": "I stood at the kitchen sink",
    "definitions_ex_vn": "Tôi đứng ở bồn rửa nhà bếp",
    "definitions_type_word": "noun"
  },
  {
    "definitions_word_en": "a pool or marsh in which a river\u0027s water disappears by evaporation or percolation.",
    "id_lesson": "sink_s",
    "definitions_ex_en": "",
    "definitions_ex_vn": "",
    "definitions_type_word": "noun"
  },
  {
    "definitions_word_en": "short for sinkhole.",
    "id_lesson": "sink_s",
    "definitions_ex_en": "",
    "definitions_ex_vn": "",
    "definitions_type_word": "noun"
  },
  {
    "definitions_word_en": "a place of vice or corruption.",
    "id_lesson": "sink_s",
    "definitions_ex_en": "a sink of unnatural vice, pride, and luxury",
    "definitions_ex_vn": "một bồn rửa của phó, tự hào và sang trọng",
    "definitions_type_word": "noun"
  }
]