[
  {
    "definitions_word_en": "with reference or regard to.",
    "id_lesson": "respecting_r",
    "definitions_ex_en": "he began to have serious worries respecting his car",
    "definitions_ex_vn": "Anh bắt đầu có những lo lắng nghiêm trọng tôn trọng chiếc xe của mình",
    "definitions_type_word": "preposition"
  }
]