[
  {
    "definitions_word_en": "be deprived of or cease to have or retain (something).",
    "id_lesson": "lose_l",
    "definitions_ex_en": "I\u0027ve lost my appetite",
    "definitions_ex_vn": "Tôi đã mất sự thèm ăn của tôi",
    "definitions_type_word": "verb"
  },
  {
    "definitions_word_en": "become unable to find (something or someone).",
    "id_lesson": "lose_l",
    "definitions_ex_en": "I\u0027ve lost the car keys",
    "definitions_ex_vn": "Tôi đã mất chìa khóa xe",
    "definitions_type_word": "verb"
  },
  {
    "definitions_word_en": "fail to win (a game or contest).",
    "id_lesson": "lose_l",
    "definitions_ex_en": "they lost by one vote",
    "definitions_ex_vn": "họ bị mất bởi một phiếu bầu",
    "definitions_type_word": "verb"
  },
  {
    "definitions_word_en": "earn less (money) than one is spending or has spent.",
    "id_lesson": "lose_l",
    "definitions_ex_en": "the paper is losing $500,000 a month",
    "definitions_ex_vn": "Bài viết đang mất 500.000 đô la một tháng",
    "definitions_type_word": "verb"
  },
  {
    "definitions_word_en": "waste or fail to take advantage of (time or an opportunity).",
    "id_lesson": "lose_l",
    "definitions_ex_en": "they lost every chance to score in the first inning",
    "definitions_ex_vn": "họ đã mất mỗi cơ hội để ghi điểm trong hiệp đầu tiên",
    "definitions_type_word": "verb"
  }
]