[
  {
    "definitions_word_en": "a particular form of procedure for accomplishing or approaching something, especially a systematic or established one.",
    "id_lesson": "method_m",
    "definitions_ex_en": "a method for software maintenance",
    "definitions_ex_vn": "Một phương pháp bảo trì phần mềm",
    "definitions_type_word": "noun"
  }
]