[
  {
    "definitions_word_en": "very angry.",
    "id_lesson": "mad_m",
    "definitions_ex_en": "they were mad at each other",
    "definitions_ex_vn": "Họ giận nhau",
    "definitions_type_word": "adjective"
  },
  {
    "definitions_word_en": "very enthusiastic about someone or something.",
    "id_lesson": "mad_m",
    "definitions_ex_en": "I wasn\u0027t mad about mountain bikes",
    "definitions_ex_vn": "Tôi đã không điên về xe đạp leo núi",
    "definitions_type_word": "adjective"
  },
  {
    "definitions_word_en": "make mad or insane.",
    "id_lesson": "mad_m",
    "definitions_ex_en": "",
    "definitions_ex_vn": "",
    "definitions_type_word": "verb"
  },
  {
    "definitions_word_en": "mutual (or mutually) assured destruction.",
    "id_lesson": "mad_m",
    "definitions_ex_en": "",
    "definitions_ex_vn": "",
    "definitions_type_word": "abbreviation"
  },
  {
    "definitions_word_en": "Moroccan dirham(s).",
    "id_lesson": "mad_m",
    "definitions_ex_en": "",
    "definitions_ex_vn": "",
    "definitions_type_word": "abbreviation"
  }
]