[
  {
    "definitions_word_en": "a loose granular substance, typically pale yellowish brown, resulting from the erosion of siliceous and other rocks and forming a major constituent of beaches, riverbeds, the seabed, and deserts.",
    "id_lesson": "sand_s",
    "definitions_ex_en": "",
    "definitions_ex_vn": "",
    "definitions_type_word": "noun"
  },
  {
    "definitions_word_en": "smooth or polish with sandpaper or a mechanical sander.",
    "id_lesson": "sand_s",
    "definitions_ex_en": "sand the rusty areas until you expose bare metal",
    "definitions_ex_vn": "cát các khu vực gỉ lại cho đến khi bạn lộ kim loại trần",
    "definitions_type_word": "verb"
  },
  {
    "definitions_word_en": "sprinkle or overlay with sand, to give better purchase on a surface.",
    "id_lesson": "sand_s",
    "definitions_ex_en": "",
    "definitions_ex_vn": "",
    "definitions_type_word": "verb"
  }
]